.............
----------------------------------------------------------------------
Ran 13 tests in 0.003s

OK
Name               Stmts   Miss Branch BrPart  Cover   Missing
--------------------------------------------------------------
Diplomacy.py          88      2     54      4    96%   72, 75->65, 77->65, 83
TestDiplomacy.py      58      0      2      0   100%
--------------------------------------------------------------
TOTAL                146      2     56      4    97%

