.........
----------------------------------------------------------------------
Ran 9 tests in 0.003s

OK
Name               Stmts   Miss Branch BrPart  Cover   Missing
--------------------------------------------------------------
Diplomacy.py          61      0     34      0   100%
TestDiplomacy.py      57      0      4      1    98%   74->exit
--------------------------------------------------------------
TOTAL                118      0     38      1    99%