............
----------------------------------------------------------------------
Ran 12 tests in 0.003s

OK
Name               Stmts   Miss Branch BrPart  Cover   Missing
--------------------------------------------------------------
Diplomacy.py          73      4     50      1    93%   76-79
TestDiplomacy.py      54      0      4      1    98%   95->exit
--------------------------------------------------------------
TOTAL                127      4     54      2    94%
